Импорт данных и их предобработка
…
my_iris %>% 
  filter(Species != "versicolor" & Sepal.Width < 2.4)

##   Sepal.Length Sepal.Width Petal.Length Petal.Width   Species
## 1          4.5         2.3          1.3         0.3    setosa
## 2          6.0         2.2          5.0         1.5 virginica

# группировка строк по какому-то признаку и анализ внутри каждой группы

my_iris %>% as_tibble()

## # A tibble: 150 x 5
##    Sepal.Length Sepal.Width Petal.Length Petal.Width Species
##           <dbl>       <dbl>        <dbl>       <dbl> <chr>  
##  1          5.1         3.5          1.4         0.2 setosa 
##  2          4.9         3            1.4         0.2 setosa 
##  3          4.7         3.2          1.3         0.2 setosa 
##  4          4.6         3.1          1.5         0.2 setosa 
##  5          5           3.6          1.4         0.2 setosa 
##  6          5.4         3.9          1.7         0.4 setosa 
##  7          4.6         3.4          1.4         0.3 setosa 
##  8          5           3.4          1.5         0.2 setosa 
##  9          4.4         2.9          1.4         0.2 setosa 
## 10          4.9         3.1          1.5         0.1 setosa 
## # … with 140 more rows

my_iris %>% 
  group_by(Species) # вроде ничего не поменялось, кроме служебной информации

## # A tibble: 150 x 5
## # Groups:   Species [3]
##    Sepal.Length Sepal.Width Petal.Length Petal.Width Species
##  *        <dbl>       <dbl>        <dbl>       <dbl> <chr>  
##  1          5.1         3.5          1.4         0.2 setosa 
##  2          4.9         3            1.4         0.2 setosa 
##  3          4.7         3.2          1.3         0.2 setosa 
##  4          4.6         3.1          1.5         0.2 setosa 
##  5          5           3.6          1.4         0.2 setosa 
##  6          5.4         3.9          1.7         0.4 setosa 
##  7          4.6         3.4          1.4         0.3 setosa 
##  8          5           3.4          1.5         0.2 setosa 
##  9          4.4         2.9          1.4         0.2 setosa 
## 10          4.9         3.1          1.5         0.1 setosa 
## # … with 140 more rows
…
## # A tibble: 3 x 2
## # Groups:   Species [3]
##   Species              data
##   <chr>      <list<df[,4]>>
## 1 setosa           [50 × 4]
## 2 versicolor       [50 × 4]
## 3 virginica        [50 × 4]

my_iris %>% 
  group_by(Species) %>% 
  nest() %>% 
  filter(Species == "setosa") %>% 
  .[["data"]] %>% .[[1]] # вот что лежит в одной такой подтабличке для группы setosa

## # A tibble: 50 x 4
##    Sepal.Length Sepal.Width Petal.Length Petal.Width
##           <dbl>       <dbl>        <dbl>       <dbl>
##  1          5.1         3.5          1.4         0.2
##  2          4.9         3            1.4         0.2
##  3          4.7         3.2          1.3         0.2
##  4          4.6         3.1          1.5         0.2
##  5          5           3.6          1.4         0.2
##  6          5.4         3.9          1.7         0.4
##  7          4.6         3.4          1.4         0.3
##  8          5           3.4          1.5         0.2
##  9          4.4         2.9          1.4         0.2
## 10          4.9         3.1          1.5         0.1
## # … with 40 more rows
…
# таблица (длинный формат)
mice_tibble_long = tibble(
  group = rep(c("R", "E1", "E2"), each = 20),
  values = c(R, E1, E2)
)
mice_tibble_long

## # A tibble: 60 x 2
##    group values
##    <chr>  <dbl>
##  1 R       41.9
##  2 R       30.7
##  3 R       30.1
##  4 R       39.9
##  5 R       31.9
##  6 R       38.6
##  7 R       33.3
##  8 R       35.9
##  9 R       36.5
## 10 R       35.2
## # … with 50 more rows
…
mice_tibble_wide %>% 
  pivot_longer(everything(), # я указал все колонки, а можно брать только часть
               names_to = "group", # имя новой колонки с названиями групп
               values_to = "values") # имя новой колонки со значениями признака

## # A tibble: 60 x 2
##    group values
##    <chr>  <dbl>
##  1 R       41.9
##  2 E1      34.3
##  3 E2      32.7
##  4 R       30.7
##  5 E1      34.0
##  6 E2      32.1
##  7 R       30.1
##  8 E1      40.1
##  9 E2      30.0
## 10 R       39.9
## # … with 50 more rows

mice_tibble_long # каждая строка - наблюдение

## # A tibble: 60 x 2
##    group values
##    <chr>  <dbl>
##  1 R       41.9
##  2 R       30.7
##  3 R       30.1
##  4 R       39.9
##  5 R       31.9
##  6 R       38.6
##  7 R       33.3
##  8 R       35.9
##  9 R       36.5
## 10 R       35.2
## # … with 50 more rows
…
